<?xml version="1.0" encoding="utf-8"?>
<!-- Generator: Adobe Illustrator 16.0.0, SVG Export Plug-In . SVG Version: 6.00 Build 0)  -->
<!DOCTYPE svg PUBLIC "-//W3C//DTD SVG 1.1//EN" "http://www.w3.org/Graphics/SVG/1.1/DTD/svg11.dtd">
<svg version="1.1" id="grill" xmlns="http://www.w3.org/2000/svg" xmlns:xlink="http://www.w3.org/1999/xlink" x="0px" y="0px"
	 width="180px" height="180px" viewBox="0 0 180 180" enable-background="new 0 0 180 180" xml:space="preserve">
<circle fill="#6A9CB3" cx="90" cy="90" r="90.15"/>
<g>
	<path fill="#153A57" d="M105.877,102.058c-5.153,6.873-13.745,10.593-24.626,10.593c-4.582,0-9.736-0.57-15.176-2.004
		c-3.723-14.319-2.291-26.914,3.722-34.936c5.154-6.872,13.745-10.593,24.626-10.593c4.582,0,9.736,0.573,15.178,2.004
		C113.321,81.442,111.89,94.038,105.877,102.058z M155.701,56.528c-1.147-1.146-2.864-1.146-4.009,0
		c-8.019,8.018-21.477,10.021-37.512,6.013c-4.294-16.035-2.004-29.206,6.013-37.511c1.146-1.146,1.146-2.863,0-4.009
		s-2.862-1.146-4.008,0c-8.877,9.163-11.74,23.194-8.018,39.804c-4.868-1.149-9.163-1.434-13.46-1.434
		c-12.598,0-22.62,4.582-29.207,12.887c-6.872,8.875-8.59,22.047-5.44,36.938c-16.895-3.725-30.924-0.859-39.802,8.017
		c-1.145,1.146-1.145,2.864,0,4.009c1.146,1.146,2.864,1.146,4.009,0c8.018-8.018,21.477-10.02,37.512-6.014
		c4.295,16.037,2.004,29.206-6.014,37.512c-1.146,1.146-1.146,2.863,0,4.01c0.573,0.571,1.145,0.858,2.004,0.858
		c0.859,0,1.432-0.287,2.004-0.858c8.876-9.163,11.74-23.194,8.018-39.804c4.868,1.148,9.163,1.433,13.458,1.433
		c12.598,0,22.622-4.581,29.207-12.887c6.873-8.875,8.59-22.047,5.439-36.937c4.869,1.146,9.451,1.718,13.745,1.718
		c10.881,0,19.758-3.15,26.344-9.736C156.846,59.676,156.846,57.673,155.701,56.528z"/>
	<path fill="#153A57" d="M119.907,35.052l21.763,21.762c0.571,0.571,1.432,0.859,2.004,0.859c0.859,0,1.432-0.289,2.005-0.859
		c1.145-1.146,1.145-2.862,0-4.011l-21.763-21.758c-1.144-1.149-2.862-1.149-4.009,0C119.048,32.187,119.048,33.907,119.907,35.052z
		"/>
	<path fill="#153A57" d="M115.612,42.211c-1.146,1.145-1.146,2.863,0,4.008l14.89,14.89c0.573,0.573,1.433,0.857,2.006,0.857
		c0.858,0,1.43-0.284,2.004-0.857c1.145-1.146,1.145-2.864,0-4.009l-14.891-14.89C118.475,41.064,116.757,41.064,115.612,42.211z"/>
	<path fill="#153A57" d="M55.766,142.432L34.004,120.67c-1.145-1.146-2.863-1.146-4.009,0c-1.145,1.145-1.145,2.862,0,4.009
		l21.762,21.762c0.573,0.571,1.432,0.858,2.005,0.858s1.432-0.287,2.004-0.858C56.911,145.584,56.911,143.576,55.766,142.432z"/>
	<path fill="#153A57" d="M58.057,136.132c0.859,0,1.432-0.286,2.004-0.861c1.146-1.142,1.146-2.862,0-4.006l-14.89-14.891
		c-1.146-1.146-2.863-1.146-4.009,0c-1.145,1.146-1.145,2.861,0,4.011l14.89,14.886C56.625,135.846,57.484,136.132,58.057,136.132z"
		/>
	<path fill="#153A57" d="M78.96,75.999c-1.146-1.145-2.864-1.145-4.009,0c-1.146,1.146-1.146,2.864,0,4.009l21.763,21.763
		c0.572,0.572,1.432,0.859,2.004,0.859c0.858,0,1.432-0.287,2.006-0.859c1.144-1.146,1.144-2.864,0-4.009L78.96,75.999z"/>
	<path fill="#153A57" d="M73.233,88.598c-1.145-1.146-2.863-1.146-4.009,0s-1.146,2.863,0,4.009l14.89,14.891
		c0.572,0.572,1.432,0.858,2.004,0.858c0.859,0,1.432-0.286,2.005-0.858c1.146-1.146,1.146-2.864,0-4.009L73.233,88.598z"/>
	<path fill="#153A57" d="M91.56,70.272c-1.146-1.146-2.863-1.146-4.009,0c-1.145,1.146-1.145,2.863,0,4.009l14.89,14.89
		c0.571,0.572,1.433,0.858,2.005,0.858s1.432-0.286,2.004-0.858c1.145-1.146,1.145-2.864,0-4.009L91.56,70.272z"/>
</g>
</svg>
