<?xml version="1.0" encoding="utf-8"?>
<!-- Generator: Adobe Illustrator 18.0.0, SVG Export Plug-In . SVG Version: 6.00 Build 0)  -->
<!DOCTYPE svg PUBLIC "-//W3C//DTD SVG 1.1//EN" "http://www.w3.org/Graphics/SVG/1.1/DTD/svg11.dtd">
<svg version="1.1" id="grill" xmlns="http://www.w3.org/2000/svg" xmlns:xlink="http://www.w3.org/1999/xlink" x="0px" y="0px"
	 viewBox="0 0 120 80" enable-background="new 0 0 120 80" xml:space="preserve">
<g id="Layer_1_2_">
	<g>
		<circle fill="#153A57" cx="58.8" cy="9.1" r="1.8"/>
		<path fill="#153A57" d="M74.7,67h-3.1c-0.5-4.3-3-7.9-6.6-9.9v-2.7h3.3v1.8c0,0.6,0.5,1.1,1.1,1.1s1.1-0.5,1.1-1.1v-5.4
			c0-0.6-0.5-1.1-1.1-1.1s-1.1,0.5-1.1,1.1v1.7H65v-2.6c4-2.2,6.7-6.5,6.7-11.3V17.8h1.8c0.8,0,1.4-0.6,1.4-1.4
			c0-0.8-0.6-1.4-1.4-1.4H63.3v-2.2c0-0.6-0.5-1.1-1.1-1.1H55c-0.6,0-1.1,0.5-1.1,1.1v2.2H43.7c-0.8,0-1.4,0.6-1.4,1.4
			s0.6,1.4,1.4,1.4h1.8v20.7c0,4.8,2.7,9.1,6.6,11.3v7.4c-3.5,2-6,5.7-6.5,9.8h-3.1c-0.8,0-1.4,0.6-1.4,1.4c0,0.8,0.6,1.4,1.4,1.4
			h4.4h23.2l0,0h4.3c0.8,0,1.4-0.6,1.4-1.4C76.2,67.6,75.5,67,74.7,67z M56.3,13.6h5.2v1.2h-5.2V13.6z M48.7,38.4V17.8H69v20.7
			c0,4-2.4,7.6-5.9,9.2l0,0c-0.7,0.4-1.5,0.6-2.4,0.8c-0.1-0.4-0.4-0.7-0.7-0.9v-4.1c2-0.5,3.5-2.2,3.5-4.5c0-2.1-3.1-7.4-3.7-8.5
			c-0.2-0.4-0.5-0.5-0.8-0.5c-0.4,0-0.7,0.2-0.8,0.5c-0.6,1.1-3.8,6.4-3.8,8.5c0,2.2,1.5,4,3.5,4.5v4.2c-0.4,0.2-0.5,0.6-0.6,0.9
			C52.3,47.7,48.7,43.5,48.7,38.4z M58.8,41.4c-1.4,0-2.6-1.2-2.6-2.6c0-0.9,1.3-3.7,2.6-5.9c1.3,2.2,2.6,5,2.6,5.9
			C61.4,40.2,60.2,41.4,58.8,41.4z M55.3,51c1.1,0.4,2.2,0.5,3.4,0.5c1.2,0,2.4-0.2,3.4-0.5v5c-1.1-0.4-2.2-0.5-3.4-0.5
			c-1.2,0-2.4,0.2-3.4,0.6V51z M48.8,67c0.7-5,5-8.7,10-8.7s9.3,3.8,10,8.7H48.8z"/>
	</g>
</g>
</svg>
