<?xml version="1.0" encoding="utf-8"?>
<!-- Generator: Adobe Illustrator 18.0.0, SVG Export Plug-In . SVG Version: 6.00 Build 0)  -->
<!DOCTYPE svg PUBLIC "-//W3C//DTD SVG 1.1//EN" "http://www.w3.org/Graphics/SVG/1.1/DTD/svg11.dtd">
<svg version="1.1" id="Layer_1" xmlns="http://www.w3.org/2000/svg" xmlns:xlink="http://www.w3.org/1999/xlink" x="0px" y="0px"
	 viewBox="0 0 240 240" enable-background="new 0 0 240 240" xml:space="preserve">
<g>
	<path fill="#FEF5D6" d="M120,3.6C55.6,3.6,3.2,56,3.2,120.4c0,64.4,52.4,116.8,116.8,116.8s116.8-52.4,116.8-116.8
		C236.8,56,184.4,3.6,120,3.6z M120,13.5c58.9,0,106.9,47.9,106.9,106.9c0,23.2-7.4,44.6-20,62.2c-1.1-21.8-12.3-29.9-12.3-29.9
		c-4.7-10.4-33.2-19.3-33.2-19.3c-10.6-3.7-13.9-7.5-14.9-9.4c-0.1-0.2-0.2-0.4-0.3-0.6c0,0,0-0.1,0-0.1c0,0-0.1-0.2-0.2-0.6
		c0,0,0,0,0,0c-0.4-1.5-1.4-5.2-1.4-6.2c0,0-0.1,0.3-0.2,0.8c-0.1-0.9-0.1-1.9,0-2.9c0,0-0.1,0.1-0.2,0.3c3.5-4.5,6.4-9.7,8.3-15
		c3.2-3.2,4.9-11.1,4.9-11.1c2.1-6,1.5-9.1,0.5-10.7c0.3-0.9,5.5-16.9-1.8-29.2c0,0-2.6-11.7-16.3-16.8c-12.7-7.8-31.6-3.1-31.6-3.1
		c-23.1,3.9-28,31-28,31C78.8,72,82.1,79.7,82.2,80c-1.2,2.9,1,10.6,1,10.6c0.7,4.7,3,6.1,3.7,6.4c1.6,5.8,4.4,11.5,7.9,16.4
		c0,0,0,0-0.1-0.1c0,0,0.4,1.9,0,4.6c-0.1-0.3-0.1-0.4-0.1-0.4c0,1.1-1.3,5.1-1.5,5.6c0,0,0,0.1,0,0.1c-1.1,1.4-2.1,2.7-3.2,3.9
		c-8.6,6.6-29.2,12.9-29.2,12.9c-9,3.5-12.8,8.6-12.8,8.6c-9.4,13.9-12.9,27.7-14.2,34.7c-12.9-17.7-20.6-39.4-20.6-62.9
		C13.1,61.4,61.1,13.5,120,13.5z"/>
	<line fill="#FEF5D6" x1="146" y1="122.5" x2="146" y2="122.5"/>
</g>
</svg>
