<?xml version="1.0" encoding="utf-8"?>
<!-- Generator: Adobe Illustrator 18.0.0, SVG Export Plug-In . SVG Version: 6.00 Build 0)  -->
<!DOCTYPE svg PUBLIC "-//W3C//DTD SVG 1.1//EN" "http://www.w3.org/Graphics/SVG/1.1/DTD/svg11.dtd">
<svg version="1.1" id="grill" xmlns="http://www.w3.org/2000/svg" xmlns:xlink="http://www.w3.org/1999/xlink" x="0px" y="0px"
	 viewBox="0 0 240 240" enable-background="new 0 0 240 240" xml:space="preserve">
<circle fill="#6A9CB3" cx="120" cy="120" r="120.2"/>
<g>
	<path fill="#153A57" d="M125.3,88.8l23.8,3.2l3.9,21.6c0.4,1.1,1.1,2.1,2.5,2.5h0.4c1.1,0,2.1-0.7,2.5-1.4l12.1-21.6
		c0.4-0.7,0.4-1.8,0-2.8c-0.4-0.7-1.4-1.4-2.1-1.8L154,86.3l-2.5-14.9c0-1.1-0.7-1.8-1.8-2.1c-0.7-0.4-1.8-0.4-2.8,0l-22.7,13.5
		c-1.1,0.7-1.8,1.8-1.4,3.2C122.8,87.7,123.9,88.8,125.3,88.8z M162.9,94.1l-6,10.6L154.8,93L162.9,94.1z M146.2,77.5l1.4,8.9
		l-13.5-1.8L146.2,77.5z"/>
	<path fill="#153A57" d="M113.6,153.3l-23.8-3.2L86,128.5c-0.4-1.1-1.1-2.1-2.5-2.5c-1.1-0.4-2.5,0.4-3.2,1.4L68.2,149
		c-0.4,0.7-0.4,1.8,0,2.8c0.4,0.7,1.4,1.4,2.1,1.8l14.2,2.1l2.5,14.9c0,1.1,0.7,1.8,1.8,2.1c0.4,0.4,0.7,0.4,1.1,0.4s1.1,0,1.4-0.4
		l22.7-13.5c1.1-0.7,1.8-1.8,1.4-3.2S114.7,153.7,113.6,153.3z M75.7,148.4l6-10.6l2.1,11.7L75.7,148.4z M92.7,165l-1.4-8.9
		l13.5,1.8L92.7,165z"/>
	<path fill="#153A57" d="M174.6,70c0.7,0,1.4-0.4,2.1-0.7L182,64c1.1-1.1,1.1-2.8,0-4.3c-1.1-1.1-2.8-1.1-4.3,0l-5.3,5.3
		c-1.1,1.1-1.1,2.8,0,4.3C173.2,69.7,173.9,70,174.6,70z"/>
	<path fill="#153A57" d="M62.2,173.2l-5.3,5.3c-1.1,1.1-1.1,2.8,0,4.3c0.7,0.7,1.4,0.7,2.1,0.7s1.4-0.4,2.1-0.7l5.3-5.3
		c1.1-1.1,1.1-2.8,0-4.3C65.1,172.1,63.3,172.1,62.2,173.2z"/>
	<path fill="#153A57" d="M195.9,174.2l-19.5-14.5c-1.8-1.4-4.3-2.1-6.4-2.1c-1.8,0-3.9,0.4-5.3,1.4l-17-17
		c21.6-22.7,37.6-50.3,43.6-78l1.4-6.7c0.4-2.5,0-5-1.8-6.7c-1.8-2.5-5-3.5-7.8-2.8l-6.7,1.4c-27.7,6-55.3,22-78,43.6L80.6,75
		c2.1-3.5,1.8-8.5-0.7-11.7L65.8,44.1c-2.8-3.9-7.8-5.7-12.4-4.3L48,41.7c-3.9,1.1-7.1,4.6-7.8,8.9s0.7,8.5,3.9,11l20.6,17
		c2.1,1.8,4.3,2.5,7.1,2.5c1.8,0,3.5-0.4,5.3-1.4L94.5,97c-23.4,23-40.8,52.1-46.8,81.2l-1.4,6.7c-0.4,2.5,0,5,1.8,6.7
		c1.4,1.8,3.9,2.8,6.4,2.8c0.7,0,1.1,0,1.8,0L63,193c28.7-6,57.4-23.4,80.8-46.4l17,17c-2.1,3.9-1.8,8.9,1.1,12.4l17,20.6
		c2.1,2.5,5.3,4.3,8.9,4.3l0,0c5,0,9.6-3.2,11-8.2l1.8-5.3C201.5,182.4,199.8,177.1,195.9,174.2z M177.4,55.1l6.7-1.4h0.4
		c0.7,0,1.4,0.4,1.8,0.7c0.4,0.4,0.7,1.1,0.4,1.8l-1.4,6.7c-5.7,26.9-20.9,53.2-41.8,75.2l-3.2-3.2c7.4-9.9,6.7-23.8-2.1-33
		c-4.6-4.6-11-7.4-17.7-7.4c-5.7,0-11,1.8-15.2,5.3l-3.2-3.2C124.3,76.4,150.8,60.8,177.4,55.1z M105.5,108.3l2.8,2.8
		c-1.8,2.5-2.8,5.7-2.8,8.9c0,3.9,1.4,7.8,4.6,10.6c2.8,2.8,6.7,4.6,10.6,4.6c3.2,0,6.4-1.1,8.9-2.8l2.8,2.8
		c-3.2,2.5-7.4,3.9-11.7,3.9c-5,0-9.9-2.1-13.5-5.7C100.1,126.7,99.8,115.7,105.5,108.3z M129.6,123.9l-13.1-13.1
		c1.4-0.7,2.8-1.1,4.3-1.1c2.5,0,5,1.1,6.7,2.8c1.8,1.8,2.8,4.3,2.8,6.7C130.3,121.4,129.9,122.8,129.6,123.9z M125.3,128.5
		c-1.4,0.7-3.2,1.4-5,1.4c-2.5,0-5-1.1-6.7-2.8c-1.8-1.8-2.8-4.3-2.8-6.7c0-1.8,0.4-3.2,1.4-5L125.3,128.5z M133.5,128.2
		c1.4-2.5,2.5-5.3,2.5-8.2c0-3.9-1.4-7.8-4.6-10.6c-2.8-2.8-6.7-4.6-10.6-4.6c-2.8,0-5.7,0.7-8.2,2.5l-2.8-2.8
		c3.2-2.1,7.1-3.5,11-3.5c5,0,9.9,2.1,13.5,5.7c6.7,6.7,7.4,17,2.1,24.5L133.5,128.2z M67.9,73.9l-20.6-17c-1.8-1.4-2.5-3.5-1.8-5.3
		c0.4-2.1,1.8-3.5,3.9-4.3l5.3-1.8c0.4,0,1.1-0.4,1.8-0.4c1.8,0,3.5,0.7,4.6,2.1l14.5,19.5c1.4,2.1,1.4,5-0.4,6.7
		C72.9,75.3,70,75.3,67.9,73.9z M61.2,187.4l-6.7,1.4c-0.7,0-1.8,0-2.1-0.7c-0.4-0.4-0.7-1.1-0.4-1.8l1.4-6.7
		c6-28,22.7-56,44.7-78.3l3.2,3.2c-7.8,9.9-7.4,24.1,1.8,33.3c4.6,4.6,11,7.4,17.7,7.4c5.7,0,11.3-2.1,15.6-5.7l3.2,3.2
		C117.2,164.7,89.2,181.3,61.2,187.4z M194.4,185.2l-1.8,5.3c-0.7,2.8-3.2,3.9-5.3,3.9c-1.8,0-3.2-0.7-4.3-2.1l-17-20.6
		c-1.8-2.1-1.4-5,0.4-6.7c1.1-1.1,2.1-1.4,3.5-1.4c1.1,0,2.1,0.4,3.2,1.1l19.5,14.5C194.4,180.6,195.2,183.1,194.4,185.2z"/>
</g>
</svg>
